…
### 行政区画データの取得

-   `spdf_jpn_cities()`

``` r
spdf_jpn_cities(jis_code_pref = 33, admin_name = "倉敷市")
#> class       : SpatialPolygonsDataFrame 
#> features    : 84 
#> extent      : 133.6024, 133.8822, 34.41736, 34.66935  (xmin, xmax, ymin, ymax)
#> coord. ref. : +proj=longlat +ellps=GRS80 +no_defs 
#> variables   : 5
#> # A tibble: 84 × 5
#>    pref_name city_name_ city_name city_name_full city_code
#> *      <chr>      <chr>     <chr>          <chr>    <fctr>
#> 1     岡山県       <NA>    倉敷市         倉敷市     33202
#> 2     岡山県       <NA>    倉敷市         倉敷市     33202
#> 3     岡山県       <NA>    倉敷市         倉敷市     33202
#> 4     岡山県       <NA>    倉敷市         倉敷市     33202
#> 5     岡山県       <NA>    倉敷市         倉敷市     33202
#> 6     岡山県       <NA>    倉敷市         倉敷市     33202
#> 7     岡山県       <NA>    倉敷市         倉敷市     33202
#> 8     岡山県       <NA>    倉敷市         倉敷市     33202
#> 9     岡山県       <NA>    倉敷市         倉敷市     33202
#> 10    岡山県       <NA>    倉敷市         倉敷市     33202
#> # ... with 74 more rows
```
…
