Spatial Data frame city single — spdf_jpn_city • jpndistrict
…
    Examples

spdf_jpn_city(spdf_jpn_pref(code = 33, district = TRUE), jis_code = 33103)
#> class       : SpatialPolygonsDataFrame 
#> features    : 52 
#> extent      : 133.9839, 134.123, 34.55702, 34.78304  (xmin, xmax, ymin, ymax)
#> coord. ref. : +proj=longlat +ellps=GRS80 +no_defs 
#> variables   : 5
#> # A tibble: 52 × 5
#>    pref_name city_name_ city_name city_name_full city_code
#> *      <chr>      <chr>     <chr>          <chr>    <fctr>
#> 1     岡山県     岡山市      東区    岡山市 東区     33103
#> 2     岡山県     岡山市      東区    岡山市 東区     33103
#> 3     岡山県     岡山市      東区    岡山市 東区     33103
#> 4     岡山県     岡山市      東区    岡山市 東区     33103
#> 5     岡山県     岡山市      東区    岡山市 東区     33103
#> 6     岡山県     岡山市      東区    岡山市 東区     33103
#> 7     岡山県     岡山市      東区    岡山市 東区     33103
#> 8     岡山県     岡山市      東区    岡山市 東区     33103
#> 9     岡山県     岡山市      東区    岡山市 東区     33103
#> 10    岡山県     岡山市      東区    岡山市 東区     33103
#> # ... with 42 more rows
spdf_jpn_city(spdf_jpn_pref(code = 33, district = TRUE), admin_name = "倉敷市")
#> class       : SpatialPolygonsDataFrame 
#> features    : 84 
#> extent      : 133.6024, 133.8822, 34.41736, 34.66935  (xmin, xmax, ymin, ymax)
#> coord. ref. : +proj=longlat +ellps=GRS80 +no_defs 
#> variables   : 5
#> # A tibble: 84 × 5
#>    pref_name city_name_ city_name city_name_full city_code
#> *      <chr>      <chr>     <chr>          <chr>    <fctr>
#> 1     岡山県       <NA>    倉敷市         倉敷市     33202
#> 2     岡山県       <NA>    倉敷市         倉敷市     33202
#> 3     岡山県       <NA>    倉敷市         倉敷市     33202
#> 4     岡山県       <NA>    倉敷市         倉敷市     33202
#> 5     岡山県       <NA>    倉敷市         倉敷市     33202
#> 6     岡山県       <NA>    倉敷市         倉敷市     33202
#> 7     岡山県       <NA>    倉敷市         倉敷市     33202
#> 8     岡山県       <NA>    倉敷市         倉敷市     33202
#> 9     岡山県       <NA>    倉敷市         倉敷市     33202
#> 10    岡山県       <NA>    倉敷市         倉敷市     33202
#> # ... with 74 more rows
…
